{
	"id": "f780bf2b-8cd1-453c-a907-48d6b2340d77",
	"name": "Tezos-Testnet",
	"values": [
		{
			"key": "sourceAddress",
			"value": "tz1YxUhaLrGr8nbdTGFs2HrJZeUebGMg7cmE",
			"enabled": true
		},
		{
			"key": "destinationAddress",
			"value": "tz1RKLWbGm7T4mnxDZHWazkbnvaryKsxxZTF",
			"enabled": true
		},
		{
			"key": "primaryNodeURL",
			"value": "https://testnet-tezos.giganode.io/",
			"enabled": true
		},
		{
			"key": "parseNodeURL",
			"value": "https://tezos-dev.cryptonomic-infra.tech:443/",
			"enabled": true
		}
	],
	"_postman_variable_scope": "environment",
	"_postman_exported_at": "2020-08-28T09:33:49.104Z",
	"_postman_exported_using": "Postman/7.30.1"
}